<?xml version="1.0" encoding="utf-8"?>
<!-- Generator: Adobe Illustrator 16.0.0, SVG Export Plug-In . SVG Version: 6.00 Build 0)  -->
<!DOCTYPE svg PUBLIC "-//W3C//DTD SVG 1.1//EN" "http://www.w3.org/Graphics/SVG/1.1/DTD/svg11.dtd">
<svg version="1.1" id="Layer_1" xmlns="http://www.w3.org/2000/svg" xmlns:xlink="http://www.w3.org/1999/xlink" x="0px" y="0px"
	 width="10px" height="9px" viewBox="0 0 10 9" enable-background="new 0 0 10 9" xml:space="preserve">
<path fill="#F4F4F4" d="M9.375,7.812L7.094,5.53c0.358-0.543,0.567-1.192,0.567-1.891c0-1.895-1.535-3.429-3.429-3.429
	S0.803,1.744,0.803,3.639c0,1.893,1.535,3.429,3.429,3.429c0.699,0,1.349-0.21,1.891-0.569l2.282,2.283L9.375,7.812z M1.775,3.639
	c0-1.357,1.1-2.457,2.457-2.457s2.458,1.1,2.458,2.457S5.589,6.097,4.232,6.097S1.775,4.996,1.775,3.639"/>
<rect id="_x3C_Slice_x3E_" fill="none" width="10" height="9"/>
</svg>
