<?xml version="1.0" encoding="utf-8"?>
<!-- Generator: Adobe Illustrator 16.0.0, SVG Export Plug-In . SVG Version: 6.00 Build 0)  -->
<!DOCTYPE svg PUBLIC "-//W3C//DTD SVG 1.1//EN" "http://www.w3.org/Graphics/SVG/1.1/DTD/svg11.dtd">
<svg version="1.1" id="Layer_1" xmlns="http://www.w3.org/2000/svg" xmlns:xlink="http://www.w3.org/1999/xlink" x="0px" y="0px"
	 width="78.2px" height="75.868px" viewBox="0 0 78.2 75.868" enable-background="new 0 0 78.2 75.868" xml:space="preserve">
<g>
	<path d="M63.752,35.938v20.799H43.447c-0.051-0.061-0.213-0.162-0.211-0.262c0.086-6.916-0.336-13.892,0.406-20.738
		c1.092-10.066,6.869-15.185,17.055-16.337c0.959-0.108,1.922-0.177,3.133-0.285c0,1.869,0.057,3.656-0.049,5.434
		c-0.021,0.354-0.609,0.854-1.029,0.978c-5.383,1.598-7.744,4.706-7.686,10.412H63.752z"/>
	<path d="M35.066,19.097c0,1.918,0.09,3.573-0.059,5.211c-0.041,0.466-0.705,1.122-1.203,1.258
		c-5.061,1.39-7.564,4.763-7.461,10.419h8.568v20.787H14.369c0-1.818-0.033-3.593,0.006-5.367
		c0.115-5.188-0.188-10.434,0.486-15.549c1.34-10.169,6.582-15.022,16.785-16.42C32.666,19.296,33.699,19.229,35.066,19.097"/>
</g>
</svg>
